<?xml version="1.0" encoding="UTF-8"?>
<!-- Created with Inkscape (http://www.inkscape.org/) -->
<svg width="45.297mm" height="45.381mm" version="1.1" viewBox="0 0 45.296664 45.381334" xmlns="http://www.w3.org/2000/svg" xmlns:cc="http://creativecommons.org/ns#" xmlns:dc="http://purl.org/dc/elements/1.1/" xmlns:rdf="http://www.w3.org/1999/02/22-rdf-syntax-ns#" xmlns:xlink="http://www.w3.org/1999/xlink">
 <defs>
  <clipPath id="clipPath4525">
   <path d="m1.0729e-5 0h720v405.12h-720z" clip-rule="evenodd"/>
  </clipPath>
  <clipPath id="clipPath4537">
   <path d="m1.0729e-5 0h720v405.12h-720z" clip-rule="evenodd"/>
  </clipPath>
  <clipPath id="clipPath4573">
   <path d="m1.0729e-5 0h720v405.12h-720z" clip-rule="evenodd"/>
  </clipPath>
  <clipPath id="clipPath6290">
   <path d="m1.0729e-5 0h720v405.12h-720z" clip-rule="evenodd"/>
  </clipPath>
  <clipPath id="clipPath6302">
   <path d="m1.0729e-5 0h720v405.12h-720z" clip-rule="evenodd"/>
  </clipPath>
  <clipPath id="clipPath6338">
   <path d="m1.0729e-5 0h720v405.12h-720z" clip-rule="evenodd"/>
  </clipPath>
  <clipPath id="clipPath7492">
   <path d="m1.1301e-5 405.12h720v-405.12h-720" clip-rule="evenodd"/>
  </clipPath>
  <clipPath id="clipPath7502">
   <path d="m1.1301e-5 405.12h720v-405.12h-720" clip-rule="evenodd"/>
  </clipPath>
  <clipPath id="clipPath7514">
   <path d="m-4.4219e-5 405.12h720v-405.12l-720 3.0518e-5" clip-rule="evenodd"/>
  </clipPath>
  <clipPath id="clipPath7524">
   <path d="m-3.38e-5 405.12h720v-405.12l-720-3.0518e-5" clip-rule="evenodd"/>
  </clipPath>
  <clipPath id="clipPath7538">
   <path d="m-4.9577e-5 405.12h720v-405.12l-720 3.0518e-5" clip-rule="evenodd"/>
  </clipPath>
  <clipPath id="clipPath7548">
   <path d="m-3.2219e-5 405.12h720v-405.12l-720-3.0517e-5" clip-rule="evenodd"/>
  </clipPath>
  <clipPath id="clipPath7558">
   <path d="m-4.6342e-5 405.12h720v-405.12l-720 3.0518e-5" clip-rule="evenodd"/>
  </clipPath>
  <clipPath id="clipPath7568">
   <path d="m-1.7176e-5 405.12h720v-405.12l-720-3.0517e-5" clip-rule="evenodd"/>
  </clipPath>
  <clipPath id="clipPath7578">
   <path d="m-4.3909e-5 405.12h720v-405.12l-720 6.1035e-5" clip-rule="evenodd"/>
  </clipPath>
 </defs>
 <metadata>
  <rdf:RDF>
   <cc:Work rdf:about="">
    <dc:format>image/svg+xml</dc:format>
    <dc:type rdf:resource="http://purl.org/dc/dcmitype/StillImage"/>
    <dc:title/>
   </cc:Work>
  </rdf:RDF>
 </metadata>
 <g transform="translate(-72.771 -105.35)">
  <g transform="matrix(0 .99997 -.99997 0 44.132 291.7)">
   <g transform="matrix(0 -.35279 -.35279 0 -204.71 359.85)">
    <g clip-path="url(#clipPath4525)">
     <text transform="matrix(1,0,0,-1,158.11,410.45)" fill="#000000" font-family="Arial" font-size="6.96px">
      <tspan x="0 3.8419199 5.7768002 9.6048002" y="0">7,28</tspan>
     </text>
    </g>
   </g>
   <g transform="matrix(0 -.35279 -.35279 0 -204.71 359.85)">
    <g clip-path="url(#clipPath4537)">
     <text transform="matrix(1,0,0,-1,716.47,410.45)" fill="#000000" font-family="Arial" font-size="6.96px">
      <tspan x="0 3.8419199 7.6838398 9.6187201 13.44672" y="0">12,42</tspan>
     </text>
    </g>
   </g>
   <g transform="matrix(0 -.35279 -.35279 0 -204.71 359.85)">
    <g clip-path="url(#clipPath4573)">
     <text transform="matrix(1,0,0,-1,221.88,410.45)" fill="#000000" font-family="Arial" font-size="6.96px">
      <tspan x="0 3.8419199 5.7768002 9.6048002" y="0">5,03</tspan>
     </text>
    </g>
   </g>
   <g transform="matrix(0 -.35279 -.35279 0 -65.339 228.09)">
    <g clip-path="url(#clipPath6290)">
     <text transform="matrix(1,0,0,-1,158.11,410.45)" fill="#000000" font-family="Arial" font-size="6.96px">
      <tspan x="0 3.8419199 5.7768002 9.6048002" y="0">7,28</tspan>
     </text>
    </g>
   </g>
   <g transform="matrix(0 -.35279 -.35279 0 -65.339 228.09)">
    <g clip-path="url(#clipPath6302)">
     <text transform="matrix(1,0,0,-1,716.47,410.45)" fill="#000000" font-family="Arial" font-size="6.96px">
      <tspan x="0 3.8419199 7.6838398 9.6187201 13.44672" y="0">12,42</tspan>
     </text>
    </g>
   </g>
   <g transform="matrix(0 -.35279 -.35279 0 -65.339 228.09)">
    <g clip-path="url(#clipPath6338)">
     <text transform="matrix(1,0,0,-1,221.88,410.45)" fill="#000000" font-family="Arial" font-size="6.96px">
      <tspan x="0 3.8419199 5.7768002 9.6048002" y="0">5,03</tspan>
     </text>
    </g>
   </g>
   <path d="m-185.72-42.483h44.194" fill="none" stroke="#000" stroke-linejoin="round" stroke-miterlimit="10" stroke-width="1.1007"/>
   <path d="m-185.72-60.094h44.194" fill="none" stroke="#000" stroke-linejoin="round" stroke-miterlimit="10" stroke-width="1.1007"/>
   <g transform="matrix(0 -.35279 -.35279 0 -67.477 166.35)">
    <g clip-path="url(#clipPath7492)">
     <path d="m554.28 247.56h125.27" fill="none" stroke="#000" stroke-linejoin="round" stroke-miterlimit="10" stroke-width="3.12"/>
    </g>
   </g>
   <g transform="matrix(0 -.35279 -.35279 0 -67.477 166.35)">
    <g clip-path="url(#clipPath7502)">
     <path d="m554.28 297.48h125.27" fill="none" stroke="#000" stroke-linejoin="round" stroke-miterlimit="10" stroke-width="3.12"/>
    </g>
   </g>
   <path d="m-163.62-46.547c-2.6177 0-4.7415-2.1238-4.7415-4.7415 0-2.6177 2.1238-4.7415 4.7415-4.7415 2.6177 0 4.7415 2.1238 4.7415 4.7415 0 2.6177-2.1238 4.7415-4.7415 4.7415z" fill="none" stroke="#96c2e9" stroke-linejoin="round" stroke-miterlimit="10" stroke-width="1.1007"/>
   <g transform="matrix(0 -.35279 -.35279 0 -67.477 166.35)">
    <g clip-path="url(#clipPath7514)">
     <path d="m576.84 282.18-19.26-18.7" fill="none" stroke="#ee7203" stroke-linejoin="round" stroke-miterlimit="10" stroke-width="3"/>
    </g>
   </g>
   <g transform="matrix(0 -.35279 -.35279 0 -67.477 166.35)">
    <g clip-path="url(#clipPath7524)">
     <path d="m558 282.32 18.7-19.27" fill="none" stroke="#ee7203" stroke-linejoin="round" stroke-miterlimit="10" stroke-width="3"/>
    </g>
   </g>
   <path d="m-146.26-29.19c-2.6177 0-4.7415-2.1026-4.7415-4.6991s2.1238-4.6991 4.7415-4.6991c2.6177 0 4.7415 2.1026 4.7415 4.6991s-2.1238 4.6991-4.7415 4.6991z" fill="none" stroke="#96c2e9" stroke-linejoin="round" stroke-miterlimit="10" stroke-width="1.1007"/>
   <path d="m-181.06-63.904c-2.6177 0-4.7415-2.1238-4.7415-4.7415 0-2.6177 2.1238-4.7415 4.7415-4.7415s4.7415 2.1238 4.7415 4.7415c0 2.6177-2.1238 4.7415-4.7415 4.7415z" fill="none" stroke="#96c2e9" stroke-linejoin="round" stroke-miterlimit="10" stroke-width="1.1007"/>
   <g transform="matrix(0 -.35279 -.35279 0 -67.477 166.35)">
    <g clip-path="url(#clipPath7538)">
     <path d="m576.84 331.86-19.26-18.7" fill="none" stroke="#ee7203" stroke-linejoin="round" stroke-miterlimit="10" stroke-width="3"/>
    </g>
   </g>
   <g transform="matrix(0 -.35279 -.35279 0 -67.477 166.35)">
    <g clip-path="url(#clipPath7548)">
     <path d="m558 332 18.7-19.27" fill="none" stroke="#ee7203" stroke-linejoin="round" stroke-miterlimit="10" stroke-width="3"/>
    </g>
   </g>
   <g transform="matrix(0 -.35279 -.35279 0 -67.477 166.35)">
    <g clip-path="url(#clipPath7558)">
     <path d="m675.4 232.96-19.26-18.69" fill="none" stroke="#ee7203" stroke-linejoin="round" stroke-miterlimit="10" stroke-width="3"/>
    </g>
   </g>
   <g transform="matrix(0 -.35279 -.35279 0 -67.477 166.35)">
    <g clip-path="url(#clipPath7568)">
     <path d="m656.57 233.1 18.69-19.26" fill="none" stroke="#ee7203" stroke-linejoin="round" stroke-miterlimit="10" stroke-width="3"/>
    </g>
   </g>
   <g transform="matrix(0 -.35279 -.35279 0 -67.477 166.35)">
    <g clip-path="url(#clipPath7578)">
     <path d="m677.71 333.84-122.02-122.03" fill="none" stroke="#e30613" stroke-linejoin="round" stroke-miterlimit="10" stroke-width="3"/>
    </g>
   </g>
  </g>
 </g>
</svg>
